{"content":[{"id":1,"name":"AURORA","attenuationMin":76.0,"attenuationMax":86.0,"type":"KVEIK","alcoholTolerance":23.0769},{"id":2,"name":"Classic American","attenuationMin":73.0,"attenuationMax":78.0,"type":"ALE","alcoholTolerance":11.0},{"id":3,"name":"Classic English","attenuationMin":72.0,"attenuationMax":76.0,"type":"ALE","alcoholTolerance":23.0769},{"id":4,"name":"Funk Weapon #1","attenuationMin":80.0,"attenuationMax":95.0,"type":"ALE","alcoholTolerance":23.0769},{"id":5,"name":"Funk Weapon #2 ","attenuationMin":80.0,"attenuationMax":95.0,"type":"ALE","alcoholTolerance":23.0769},{"id":6,"name":"Funk Weapon #3","attenuationMin":80.0,"attenuationMax":95.0,"type":"ALE","alcoholTolerance":23.0769},{"id":7,"name":"NEEPAH Blend","attenuationMin":75.0,"attenuationMax":82.0,"type":"ALE","alcoholTolerance":7.69231},{"id":8,"name":"OSLO","attenuationMin":76.0,"attenuationMax":86.0,"type":"KVEIK","alcoholTolerance":23.0769},{"id":9,"name":"S. arlingtonesis™","attenuationMin":88.0,"attenuationMax":93.0,"type":"ALE","alcoholTolerance":23.0769},{"id":10,"name":"Saison Parfait™: New World Saison Blend","attenuationMin":90.0,"attenuationMax":100.0,"type":"ALE","alcoholTolerance":23.0769},{"id":11,"name":"Sour Solera Blend","attenuationMin":96.0,"attenuationMax":100.0,"type":"ALE","alcoholTolerance":23.0769},{"id":12,"name":"Sour Weapon L","attenuationMin":0.0,"attenuationMax":0.0,"type":"BACTERIA","alcoholTolerance":7.69231},{"id":13,"name":"Sour Weapon P","attenuationMin":0.0,"attenuationMax":0.0,"type":"BACTERIA","alcoholTolerance":23.0769},{"id":14,"name":"The Mad Fermentationist Saison Blend","attenuationMin":90.0,"attenuationMax":100.0,"type":"ALE","alcoholTolerance":23.0769},{"id":15,"name":"Berliner blend ","attenuationMin":0.0,"attenuationMax":0.0,"type":"ALE","alcoholTolerance":0.0},{"id":16,"name":"BugFarm","attenuationMin":0.0,"attenuationMax":0.0,"type":"ALE","alcoholTolerance":0.0},{"id":17,"name":"Farmhouse ","attenuationMin":80.0,"attenuationMax":0.0,"type":"ALE","alcoholTolerance":0.0},{"id":18,"name":"Flemish Ale","attenuationMin":0.0,"attenuationMax":0.0,"type":"ALE","alcoholTolerance":0.0},{"id":19,"name":"Kellerbier","attenuationMin":74.0,"attenuationMax":76.0,"type":"LAGER","alcoholTolerance":0.0},{"id":20,"name":"Kölschbier","attenuationMin":75.0,"attenuationMax":78.0,"type":"ALE","alcoholTolerance":0.0}],"empty":false,"first":true,"last":false,"number":0,"numberOfElements":20,"pageable":{"offset":0,"pageNumber":0,"pageSize":20,"paged":true,"sort":{"empty":true,"sorted":false,"unsorted":true},"unpaged":false},"size":20,"sort":{"empty":true,"sorted":false,"unsorted":true},"totalElements":446,"totalPages":23}