{"content":[{"id":3,"name":"Outeniqua","alphaAcid":12.75,"origin":"South Africa"},{"id":4,"name":"Pilot","alphaAcid":9.75,"origin":"UK"},{"id":5,"name":"Lubelska-Pulawy","alphaAcid":6.0,"origin":"Poland"},{"id":6,"name":"Pacifica","alphaAcid":5.5,"origin":"New Zealand"},{"id":7,"name":"Sun","alphaAcid":14.0,"origin":"US"},{"id":8,"name":"Zlatan","alphaAcid":5.2,"origin":"Czechia"},{"id":9,"name":"Bramling Cross","alphaAcid":6.4,"origin":"UK"},{"id":10,"name":"Neo1","alphaAcid":8.0,"origin":"US"},{"id":11,"name":"Amethyst","alphaAcid":4.0,"origin":"Czech Republic"},{"id":12,"name":"Aquila","alphaAcid":7.800000000000001,"origin":"US"},{"id":13,"name":"Liberty","alphaAcid":4.5,"origin":"US"},{"id":14,"name":"Petham Golding","alphaAcid":6.9,"origin":"UK"},{"id":15,"name":"Serebrianka","alphaAcid":3.5,"origin":"Russia"},{"id":16,"name":"Tolhurst","alphaAcid":2.2,"origin":"UK"},{"id":17,"name":"Millennium","alphaAcid":15.5,"origin":"Unknown"},{"id":18,"name":"Super Pride","alphaAcid":14.25,"origin":"Australia"},{"id":19,"name":"Precoce de Bourgogne","alphaAcid":3.4,"origin":"France"},{"id":20,"name":"Styrian Golding","alphaAcid":4.4,"origin":"Austria and Slovenia"},{"id":21,"name":"Summer","alphaAcid":6.0,"origin":"Australia"},{"id":22,"name":"Tettnanger A","alphaAcid":4.4,"origin":"Germany"}],"empty":false,"first":true,"last":false,"number":0,"numberOfElements":20,"pageable":{"offset":0,"pageNumber":0,"pageSize":20,"paged":true,"sort":{"empty":true,"sorted":false,"unsorted":true},"unpaged":false},"size":20,"sort":{"empty":true,"sorted":false,"unsorted":true},"totalElements":315,"totalPages":16}