{"content":[{"id":4,"name":"Pilsen Malt","type":"GRAIN","colorEbc":7.0,"yieldPercentage":75.0,"protein":11.8},{"id":5,"name":"Pale Ale Malt","type":"GRAIN","colorEbc":7.0,"yieldPercentage":75.0,"protein":11.5},{"id":6,"name":"Vienna Malt","type":"GRAIN","colorEbc":10.0,"yieldPercentage":75.0,"protein":11.5},{"id":7,"name":"Munich Malt","type":"GRAIN","colorEbc":25.0,"yieldPercentage":75.0,"protein":12.5},{"id":8,"name":"Terroir Paulista Vienna","type":"GRAIN","colorEbc":10.0,"yieldPercentage":75.0,"protein":12.0},{"id":9,"name":"Terroir Paulista Pale Ale","type":"GRAIN","colorEbc":6.0,"yieldPercentage":75.0,"protein":12.0},{"id":10,"name":"Terroir Paulista Pilsen","type":"GRAIN","colorEbc":3.5,"yieldPercentage":75.0,"protein":12.0},{"id":11,"name":"Terroir Paulista Carapálida ","type":"GRAIN","colorEbc":6.5,"yieldPercentage":75.0,"protein":5.4},{"id":12,"name":"Terroir Paulista Munich","type":"GRAIN","colorEbc":20.0,"yieldPercentage":75.0,"protein":12.0},{"id":13,"name":"Terroir Paulista Biscoito / Melanoidina","type":"GRAIN","colorEbc":55.0,"yieldPercentage":75.0,"protein":12.0},{"id":14,"name":"Terroir Paulista Caramelo 1","type":"GRAIN","colorEbc":35.0,"yieldPercentage":75.0,"protein":12.0},{"id":15,"name":"Terroir Paulista Caramelo 2","type":"GRAIN","colorEbc":55.0,"yieldPercentage":75.0,"protein":12.0},{"id":16,"name":"Terroir Paulista Caramelo 3","type":"GRAIN","colorEbc":100.0,"yieldPercentage":75.0,"protein":12.0},{"id":17,"name":"Terroir Paulista Caramelo 130 EBC","type":"GRAIN","colorEbc":140.0,"yieldPercentage":75.0,"protein":12.0},{"id":18,"name":"Terroir Paulista IAC-600 Black Rice Malt","type":"GRAIN","colorEbc":0.0,"yieldPercentage":75.0,"protein":9.0},{"id":19,"name":"White Rice Malt TERROIR PAULISTA","type":"GRAIN","colorEbc":5.0,"yieldPercentage":75.0,"protein":10.0},{"id":20,"name":"Light Wheat Malt","type":"GRAIN","colorEbc":6.0,"yieldPercentage":75.0,"protein":13.5},{"id":21,"name":"Munich Wheat Malt","type":"GRAIN","colorEbc":25.0,"yieldPercentage":75.0,"protein":13.5},{"id":22,"name":"Pilsener Malt","type":"GRAIN","colorEbc":4.0,"yieldPercentage":75.0,"protein":11.0},{"id":23,"name":"Pilsener Malt 6 row winter","type":"GRAIN","colorEbc":4.0,"yieldPercentage":75.0,"protein":11.2}],"empty":false,"first":true,"last":false,"number":0,"numberOfElements":20,"pageable":{"offset":0,"pageNumber":0,"pageSize":20,"paged":true,"sort":{"empty":true,"sorted":false,"unsorted":true},"unpaged":false},"size":20,"sort":{"empty":true,"sorted":false,"unsorted":true},"totalElements":838,"totalPages":42}